\relax 
\providecommand\hyper@newdestlabel[2]{}
\providecommand\HyperFirstAtBeginDocument{\AtBeginDocument}
\HyperFirstAtBeginDocument{\ifx\hyper@anchor\@undefined
\global\let\oldcontentsline\contentsline
\gdef\contentsline#1#2#3#4{\oldcontentsline{#1}{#2}{#3}}
\global\let\oldnewlabel\newlabel
\gdef\newlabel#1#2{\newlabelxx{#1}#2}
\gdef\newlabelxx#1#2#3#4#5#6{\oldnewlabel{#1}{{#2}{#3}}}
\AtEndDocument{\ifx\hyper@anchor\@undefined
\let\contentsline\oldcontentsline
\let\newlabel\oldnewlabel
\fi}
\fi}
\global\let\hyper@last\relax 
\gdef\HyperFirstAtBeginDocument#1{#1}
\providecommand\HyField@AuxAddToFields[1]{}
\providecommand\HyField@AuxAddToCoFields[2]{}
\@writefile{toc}{\contentsline {chapter}{\numberline {1}Sets and functions}{1}{chapter.1}\protected@file@percent }
\@writefile{lof}{\addvspace {10\p@ }}
\@writefile{lot}{\addvspace {10\p@ }}
\@writefile{toc}{\contentsline {section}{\numberline {1.1}Ologs}{1}{section.1.1}\protected@file@percent }
\@writefile{toc}{\contentsline {subsection}{\numberline {1.1.1}Facts}{1}{subsection.1.1.1}\protected@file@percent }
\@writefile{toc}{\contentsline {subsubsection}{\numberline {1.1.1.1}Images}{1}{subsubsection.1.1.1.1}\protected@file@percent }
\newlabel{sec:images}{{1.1.1.1}{1}{Images}{subsubsection.1.1.1.1}{}}
\@writefile{toc}{\contentsline {section}{\numberline {1.2}Products and coproducts}{2}{section.1.2}\protected@file@percent }
\newlabel{sec:prods and coprods in set}{{1.2}{2}{Products and coproducts}{section.1.2}{}}
\@writefile{toc}{\contentsline {subsection}{\numberline {1.2.1}Products}{2}{subsection.1.2.1}\protected@file@percent }
\newlabel{sec:products}{{1.2.1}{2}{Products}{subsection.1.2.1}{}}
\newlabel{ex:grid1}{{1.2.1.2}{2}{}{subsubsection.1.2.1.2}{}}
\citation{Pen}
\newlabel{ex:R2}{{1.2.1.7}{3}{}{subsubsection.1.2.1.7}{}}
\@writefile{toc}{\contentsline {subsubsection}{\numberline {1.2.1.9}Universal property for products}{3}{subsubsection.1.2.1.9}\protected@file@percent }
\newlabel{lemma:up for prod}{{1.2.1.10}{3}{Universal property for product}{subsubsection.1.2.1.10}{}}
\newlabel{dia:univ prop for products}{{1.2}{4}{Universal property for product}{equation.1.2.2}{}}
